{
  "Unidades": [
    {
      "name": "Metro",
      "conversion": 1.0,
      "base_unit": true
    },
    {
      "name": "Milimetro",
      "conversion": 1000.0
    },
    {
      "name": "Centimetro",
      "conversion": 100.0
    },
    {
      "name": "Kilometro",
      "conversion": 0.001
    },
    {
      "name": "Pulgada",
      "conversion": 39.3701
    },
    {
      "name": "Pie",
      "conversion": 3.28084
    },
    {
      "name": "Yarda",
      "conversion": 1.09361
    },
    {
      "name": "Milla",
      "conversion": 0.000621371
    }
  ],
  "Area": [
    {
      "name": "Metro cuadrado",
      "conversion": 1.0,
      "base_unit": true
    },
    {
      "name": "Kilometro cuadrado",
      "conversion": 0.000001
    },
    {
      "name": "Pulgada cuadrada",
      "conversion": 1550.0
    },
    {
      "name": "Pie cuadrado",
      "conversion": 10.7639
    },
    {
      "name": "Yarda cuadrada",
      "conversion": 1.19599
    },
    {
      "name": "Acre",
      "conversion": 0.000247105
    },
    {
      "name": "Hectarea",
      "conversion": 0.0001
    }
  ],
  "Masa": [
    {
      "name": "Kilogramo",
      "conversion": 1.0,
      "base_unit": true
    },
    {
      "name": "Gramo",
      "conversion": 1000.0
    },
    {
      "name": "Onza",
      "conversion": 35.274
    },
    {
      "name": "Libra",
      "conversion": 2.20462
    }
  ]
}